//Maya ASCII 2012 scene
//Name: triangulator.ma
//Last modified: Thu, May 17, 2012 01:52:23 AM
//Codeset: UTF-8
requires maya "2012";
requires "Triangulator" "7";
requires "stereoCamera" "10.0";
currentUnit -l centimeter -a degree -t film;
fileInfo "application" "maya";
fileInfo "product" "Maya 2012";
fileInfo "version" "2012 x64";
fileInfo "cutIdentifier" "201103110020-796618";
fileInfo "osv" "Mac OS X 10.7.4";
createNode transform -s -n "persp";
	setAttr ".t" -type "double3" 4.2423244945014673 -7.7551822048450747 -0.96572303545691696 ;
	setAttr ".r" -type "double3" 0.78315494147223685 53.352524686143916 28.494713978317787 ;
createNode transform -n "locator68" -p "persp";
createNode locator -n "locatorShape68" -p "locator68";
	setAttr -k off ".v";
createNode transform -n "locator69" -p "persp";
	setAttr ".t" -type "double3" 0 0 -1 ;
createNode locator -n "locatorShape69" -p "locator69";
	setAttr -k off ".v";
createNode transform -n "group1";
	setAttr ".ove" yes;
	setAttr ".ovc" 12;
	setAttr ".r" -type "double3" 0 0 -83.619280030291634 ;
	setAttr ".s" -type "double3" 1 2.0628500289948262 1 ;
createNode transform -n "locator1" -p "group1";
	setAttr ".t" -type "double3" 0 0.17669459286380373 0 ;
	setAttr ".s" -type "double3" 0.19274143415381881 0.19274143415381881 0.19274143415381881 ;
createNode locator -n "locatorShape1" -p "locator1";
	setAttr -k off ".v";
createNode transform -n "locator2" -p "group1";
	setAttr ".t" -type "double3" -0.33252356474214118 0.71424503047453314 -3.3351458118203485 ;
	setAttr ".s" -type "double3" 0.19274143415381881 0.19274143415381881 0.19274143415381881 ;
createNode locator -n "locatorShape2" -p "locator2";
	setAttr -k off ".v";
createNode transform -n "locator3" -p "group1";
	setAttr ".t" -type "double3" -1.6692564920476141 0.61008998950552495 0.75048358364002254 ;
	setAttr ".s" -type "double3" 0.19274143415381881 0.19274143415381881 0.19274143415381881 ;
createNode locator -n "locatorShape3" -p "locator3";
	setAttr -k off ".v";
createNode transform -n "locator4" -p "group1";
	setAttr ".t" -type "double3" 0 0.10535006681116599 0 ;
	setAttr ".s" -type "double3" 0.19274143415381881 0.19274143415381881 0.19274143415381881 ;
createNode locator -n "locatorShape4" -p "locator4";
	setAttr -k off ".v";
createNode transform -n "locator5" -p "group1";
	setAttr ".t" -type "double3" 0.96624990418211043 0.29308096262710848 -1.2782925344953009 ;
	setAttr ".s" -type "double3" 0.19274143415381881 0.19274143415381881 0.19274143415381881 ;
createNode locator -n "locatorShape5" -p "locator5";
	setAttr -k off ".v";
createNode transform -n "locator6" -p "group1";
	setAttr ".t" -type "double3" 1.4334522222371655 0.5444081390556228 -2.2967490175616376 ;
	setAttr ".s" -type "double3" 0.19274143415381881 0.19274143415381881 0.19274143415381881 ;
createNode locator -n "locatorShape6" -p "locator6";
	setAttr -k off ".v";
createNode transform -n "locator7" -p "group1";
	setAttr ".t" -type "double3" 0.011517749874530914 0.92030395217541638 -3.5126984017884997 ;
	setAttr ".s" -type "double3" 0.19274143415381881 0.19274143415381881 0.19274143415381881 ;
createNode locator -n "locatorShape7" -p "locator7";
	setAttr -k off ".v";
createNode transform -n "locator8" -p "group1";
	setAttr ".t" -type "double3" -1.2424873751806622 0.5384872597692798 -2.825350491823122 ;
	setAttr ".s" -type "double3" 0.19274143415381881 0.19274143415381881 0.19274143415381881 ;
createNode locator -n "locatorShape8" -p "locator8";
	setAttr -k off ".v";
createNode transform -n "locator9" -p "group1";
	setAttr ".t" -type "double3" -2.0388377753709235 0.64676453043812421 -2.9410367765032115 ;
	setAttr ".s" -type "double3" 0.19274143415381881 0.19274143415381881 0.19274143415381881 ;
createNode locator -n "locatorShape9" -p "locator9";
	setAttr -k off ".v";
createNode transform -n "locator10" -p "group1";
	setAttr ".t" -type "double3" -3.5264904457113362 0.79430427629666056 -2.8373991320818224 ;
	setAttr ".s" -type "double3" 0.19274143415381881 0.19274143415381881 0.19274143415381881 ;
createNode locator -n "locatorShape10" -p "locator10";
	setAttr -k off ".v";
createNode transform -n "locator11" -p "group1";
	setAttr ".t" -type "double3" -3.0515649114773566 0.68251662788983936 -2.6458757417258427 ;
	setAttr ".s" -type "double3" 0.19274143415381881 0.19274143415381881 0.19274143415381881 ;
createNode locator -n "locatorShape11" -p "locator11";
	setAttr -k off ".v";
createNode transform -n "locator12" -p "group1";
	setAttr ".t" -type "double3" -3.0142502906225621 0.99714181461287055 0.11956478083568012 ;
	setAttr ".s" -type "double3" 0.19274143415381881 0.19274143415381881 0.19274143415381881 ;
createNode locator -n "locatorShape12" -p "locator12";
	setAttr -k off ".v";
createNode transform -n "locator13" -p "group1";
	setAttr ".t" -type "double3" -1.7526975381547629 0.086557401916998344 -1.3762876839223228 ;
	setAttr ".s" -type "double3" 0.19274143415381881 0.19274143415381881 0.19274143415381881 ;
createNode locator -n "locatorShape13" -p "locator13";
	setAttr -k off ".v";
createNode transform -n "locator14" -p "group1";
	setAttr ".t" -type "double3" -1.0952906707421501 0.64226486320554343 0.47962040280424212 ;
	setAttr ".s" -type "double3" 0.19274143415381881 0.19274143415381881 0.19274143415381881 ;
createNode locator -n "locatorShape14" -p "locator14";
	setAttr -k off ".v";
createNode transform -n "locator15" -p "group1";
	setAttr ".t" -type "double3" 0.033909843412490481 0.99292632993989116 1.6250900004072726 ;
	setAttr ".s" -type "double3" 0.19274143415381881 0.19274143415381881 0.19274143415381881 ;
createNode locator -n "locatorShape15" -p "locator15";
	setAttr -k off ".v";
createNode transform -n "locator16" -p "group1";
	setAttr ".t" -type "double3" 0.18094457555999011 0.093796017680428889 2.8372019586682549 ;
	setAttr ".s" -type "double3" 0.19274143415381881 0.19274143415381881 0.19274143415381881 ;
createNode locator -n "locatorShape16" -p "locator16";
	setAttr -k off ".v";
createNode transform -n "locator17" -p "group1";
	setAttr ".t" -type "double3" 1.8800281968311912 0.60924765271007431 0.54630754865013476 ;
	setAttr ".s" -type "double3" 0.19274143415381881 0.19274143415381881 0.19274143415381881 ;
createNode locator -n "locatorShape17" -p "locator17";
	setAttr -k off ".v";
createNode transform -n "locator18" -p "group1";
	setAttr ".t" -type "double3" 2.1921088861248714 0.74230827262161725 0.23959700102473036 ;
	setAttr ".s" -type "double3" 0.19274143415381881 0.19274143415381881 0.19274143415381881 ;
createNode locator -n "locatorShape18" -p "locator18";
	setAttr -k off ".v";
createNode transform -n "locator19" -p "group1";
	setAttr ".t" -type "double3" 1.519678906816321 0.94832062784973914 1.0104723660910695 ;
	setAttr ".s" -type "double3" 0.19274143415381881 0.19274143415381881 0.19274143415381881 ;
createNode locator -n "locatorShape19" -p "locator19";
	setAttr -k off ".v";
createNode transform -n "locator20" -p "group1";
	setAttr ".t" -type "double3" 0.57226961788953723 0.74028671580905936 -0.38603114180116727 ;
	setAttr ".s" -type "double3" 0.19274143415381881 0.19274143415381881 0.19274143415381881 ;
createNode locator -n "locatorShape20" -p "locator20";
	setAttr -k off ".v";
createNode transform -n "locator21" -p "group1";
	setAttr ".t" -type "double3" 0.78151702711467896 0.15691665828158108 1.7678802190199727 ;
	setAttr ".s" -type "double3" 0.19274143415381881 0.19274143415381881 0.19274143415381881 ;
createNode locator -n "locatorShape21" -p "locator21";
	setAttr -k off ".v";
createNode transform -n "locator22" -p "group1";
	setAttr ".t" -type "double3" -0.88795909152799535 0.72574234526033676 2.290561937789068 ;
	setAttr ".s" -type "double3" 0.19274143415381881 0.19274143415381881 0.19274143415381881 ;
createNode locator -n "locatorShape22" -p "locator22";
	setAttr -k off ".v";
createNode transform -n "locator23" -p "group1";
	setAttr ".t" -type "double3" -2.2844281240253661 0.31914755392394056 1.2249170278008599 ;
	setAttr ".s" -type "double3" 0.19274143415381881 0.19274143415381881 0.19274143415381881 ;
createNode locator -n "locatorShape23" -p "locator23";
	setAttr -k off ".v";
createNode transform -n "locator24" -p "group1";
	setAttr ".t" -type "double3" -2.0504108138293304 0.53773763306241662 0.29716433522574448 ;
	setAttr ".s" -type "double3" 0.19274143415381881 0.19274143415381881 0.19274143415381881 ;
createNode locator -n "locatorShape24" -p "locator24";
	setAttr -k off ".v";
createNode transform -n "locator25" -p "group1";
	setAttr ".t" -type "double3" 0.55083849533316287 0.19137958112381287 -3.1854883049328793 ;
	setAttr ".s" -type "double3" 0.19274143415381881 0.19274143415381881 0.19274143415381881 ;
createNode locator -n "locatorShape25" -p "locator25";
	setAttr -k off ".v";
createNode transform -n "locator26" -p "group1";
	setAttr ".t" -type "double3" -3.2195654083505536 0.052194735250115087 -5.1120224481347334 ;
	setAttr ".s" -type "double3" 0.19274143415381881 0.19274143415381881 0.19274143415381881 ;
createNode locator -n "locatorShape26" -p "locator26";
	setAttr -k off ".v";
createNode transform -n "locator27" -p "group1";
	setAttr ".t" -type "double3" -4.0364867702901988 0.3049048922465829 -3.8532533547471433 ;
	setAttr ".s" -type "double3" 0.19274143415381881 0.19274143415381881 0.19274143415381881 ;
createNode locator -n "locatorShape27" -p "locator27";
	setAttr -k off ".v";
createNode transform -n "locator28" -p "group1";
	setAttr ".t" -type "double3" -4.5864099820017223 0.8208261878906562 -2.9294948625847654 ;
	setAttr ".s" -type "double3" 0.19274143415381881 0.19274143415381881 0.19274143415381881 ;
createNode locator -n "locatorShape28" -p "locator28";
	setAttr -k off ".v";
createNode transform -n "locator29" -p "group1";
	setAttr ".t" -type "double3" -4.0205058108187339 0.22028499396027001 -1.1441810787962021 ;
	setAttr ".s" -type "double3" 0.19274143415381881 0.19274143415381881 0.19274143415381881 ;
createNode locator -n "locatorShape29" -p "locator29";
	setAttr -k off ".v";
createNode transform -n "locator30" -p "group1";
	setAttr ".t" -type "double3" -2.7694567055990067 0.065133735227636436 1.2706831049543306 ;
	setAttr ".s" -type "double3" 0.19274143415381881 0.19274143415381881 0.19274143415381881 ;
createNode locator -n "locatorShape30" -p "locator30";
	setAttr -k off ".v";
createNode transform -n "locator31" -p "group1";
	setAttr ".t" -type "double3" -3.5857630860606307 0.52017084763285482 -1.4070859870130867 ;
	setAttr ".s" -type "double3" 0.19274143415381881 0.19274143415381881 0.19274143415381881 ;
createNode locator -n "locatorShape31" -p "locator31";
	setAttr -k off ".v";
createNode transform -n "locator32" -p "group1";
	setAttr ".t" -type "double3" -2.6185314730220783 0.48688107422642801 -1.7046207499988046 ;
	setAttr ".s" -type "double3" 0.19274143415381881 0.19274143415381881 0.19274143415381881 ;
createNode locator -n "locatorShape32" -p "locator32";
	setAttr -k off ".v";
createNode transform -n "locator33" -p "group1";
	setAttr ".t" -type "double3" -1.7409204761138435 0.62512743106801594 0.17189450282523211 ;
	setAttr ".s" -type "double3" 0.19274143415381881 0.19274143415381881 0.19274143415381881 ;
createNode locator -n "locatorShape33" -p "locator33";
	setAttr -k off ".v";
createNode transform -n "locator34" -p "group1";
	setAttr ".t" -type "double3" -3.2481727537805432 0.26106255333397499 0.62564298728599255 ;
	setAttr ".s" -type "double3" 0.19274143415381881 0.19274143415381881 0.19274143415381881 ;
createNode locator -n "locatorShape34" -p "locator34";
	setAttr -k off ".v";
createNode transform -n "locator35" -p "group1";
	setAttr ".t" -type "double3" -6.351420928711482 0.64286736688717383 -0.17716110726301082 ;
	setAttr ".s" -type "double3" 0.19274143415381881 0.19274143415381881 0.19274143415381881 ;
createNode locator -n "locatorShape35" -p "locator35";
	setAttr -k off ".v";
createNode transform -n "locator36" -p "group1";
	setAttr ".t" -type "double3" -3.1109077795873317 0.4348755040541441 2.1728360419937669 ;
	setAttr ".s" -type "double3" 0.19274143415381881 0.19274143415381881 0.19274143415381881 ;
createNode locator -n "locatorShape36" -p "locator36";
	setAttr -k off ".v";
createNode transform -n "locator37" -p "group1";
	setAttr ".t" -type "double3" -2.0496388413500695 0.58218749580229456 2.2956704653748661 ;
	setAttr ".s" -type "double3" 0.19274143415381881 0.19274143415381881 0.19274143415381881 ;
createNode locator -n "locatorShape37" -p "locator37";
	setAttr -k off ".v";
createNode transform -n "locator38" -p "group1";
	setAttr ".t" -type "double3" -1.2211733363185227 0.33369824472645249 3.0473722434872674 ;
	setAttr ".s" -type "double3" 0.19274143415381881 0.19274143415381881 0.19274143415381881 ;
createNode locator -n "locatorShape38" -p "locator38";
	setAttr -k off ".v";
createNode transform -n "locator39" -p "group1";
	setAttr ".t" -type "double3" -0.27633210295377353 0.049051394731762343 2.5614404713392052 ;
	setAttr ".s" -type "double3" 0.19274143415381881 0.19274143415381881 0.19274143415381881 ;
createNode locator -n "locatorShape39" -p "locator39";
	setAttr -k off ".v";
createNode transform -n "locator40" -p "group1";
	setAttr ".t" -type "double3" 2.5208716555265167 0.1562274750542052 0.94187684497207069 ;
	setAttr ".s" -type "double3" 0.19274143415381881 0.19274143415381881 0.19274143415381881 ;
createNode locator -n "locatorShape40" -p "locator40";
	setAttr -k off ".v";
createNode transform -n "locator41" -p "group1";
	setAttr ".t" -type "double3" 3.2358946182914456 0.68729849544438792 -0.35991931760962181 ;
	setAttr ".s" -type "double3" 0.19274143415381881 0.19274143415381881 0.19274143415381881 ;
createNode locator -n "locatorShape41" -p "locator41";
	setAttr -k off ".v";
createNode transform -n "locator42" -p "group1";
	setAttr ".t" -type "double3" 1.383251149920274 0.9289037365597359 -4.1227769418814271 ;
	setAttr ".s" -type "double3" 0.19274143415381881 0.19274143415381881 0.19274143415381881 ;
createNode locator -n "locatorShape42" -p "locator42";
	setAttr -k off ".v";
createNode transform -n "locator43" -p "group1";
	setAttr ".t" -type "double3" -1.546461357928985 0.49602095443557914 -5.3216985410255679 ;
	setAttr ".s" -type "double3" 0.19274143415381881 0.19274143415381881 0.19274143415381881 ;
createNode locator -n "locatorShape43" -p "locator43";
	setAttr -k off ".v";
createNode transform -n "locator44" -p "group1";
	setAttr ".t" -type "double3" -3.4499674691034681 0.91176303751957377 -4.4153792652894106 ;
	setAttr ".s" -type "double3" 0.19274143415381881 0.19274143415381881 0.19274143415381881 ;
createNode locator -n "locatorShape44" -p "locator44";
	setAttr -k off ".v";
createNode transform -n "locator45" -p "group1";
	setAttr ".t" -type "double3" -5.4956573497434729 0.064031745725604217 -2.4020039319500164 ;
	setAttr ".s" -type "double3" 0.19274143415381881 0.19274143415381881 0.19274143415381881 ;
createNode locator -n "locatorShape45" -p "locator45";
	setAttr -k off ".v";
createNode transform -n "locator46" -p "group1";
	setAttr ".t" -type "double3" -5.6296640753985301 0.42171603565300941 -0.11895076351501821 ;
	setAttr ".s" -type "double3" 0.19274143415381881 0.19274143415381881 0.19274143415381881 ;
createNode locator -n "locatorShape46" -p "locator46";
	setAttr -k off ".v";
createNode transform -n "locator47" -p "group1";
	setAttr ".t" -type "double3" -3.4910625206686703 0.24877871099577931 2.364906945713229 ;
	setAttr ".s" -type "double3" 0.19274143415381881 0.19274143415381881 0.19274143415381881 ;
createNode locator -n "locatorShape47" -p "locator47";
	setAttr -k off ".v";
createNode transform -n "locator48" -p "group1";
	setAttr ".t" -type "double3" -0.83446368099517354 0.35368660236903438 3.41794160845954 ;
	setAttr ".s" -type "double3" 0.19274143415381881 0.19274143415381881 0.19274143415381881 ;
createNode locator -n "locatorShape48" -p "locator48";
	setAttr -k off ".v";
createNode transform -n "locator49" -p "group1";
	setAttr ".t" -type "double3" 1.3456855350661638 0.46538634711767912 2.1501399271667045 ;
	setAttr ".s" -type "double3" 0.19274143415381881 0.19274143415381881 0.19274143415381881 ;
createNode locator -n "locatorShape49" -p "locator49";
	setAttr -k off ".v";
createNode transform -n "locator50" -p "group1";
	setAttr ".t" -type "double3" 3.1623296591682526 0.96540489140034924 0.40256249403112854 ;
	setAttr ".s" -type "double3" 0.19274143415381881 0.19274143415381881 0.19274143415381881 ;
createNode locator -n "locatorShape50" -p "locator50";
	setAttr -k off ".v";
createNode transform -n "locator51" -p "group1";
	setAttr ".t" -type "double3" 4.1870275329745192 0.46109125190244915 -0.33049910216772194 ;
	setAttr ".s" -type "double3" 0.19274143415381881 0.19274143415381881 0.19274143415381881 ;
createNode locator -n "locatorShape51" -p "locator51";
	setAttr -k off ".v";
createNode transform -n "locator52" -p "group1";
	setAttr ".t" -type "double3" 2.5513892551864141 0.2175041692396853 -3.1180655871600589 ;
	setAttr ".s" -type "double3" 0.19274143415381881 0.19274143415381881 0.19274143415381881 ;
createNode locator -n "locatorShape52" -p "locator52";
	setAttr -k off ".v";
createNode transform -n "locator53" -p "group1";
	setAttr ".t" -type "double3" 1.3045146537464569 0.89612690458762778 -6.1720625629189847 ;
	setAttr ".s" -type "double3" 0.19274143415381881 0.19274143415381881 0.19274143415381881 ;
createNode locator -n "locatorShape53" -p "locator53";
	setAttr -k off ".v";
createNode transform -n "locator54" -p "group1";
	setAttr ".t" -type "double3" -3.9990261497666966 0.026717874403392017 -6.2403070948181796 ;
	setAttr ".s" -type "double3" 0.19274143415381881 0.19274143415381881 0.19274143415381881 ;
createNode locator -n "locatorShape54" -p "locator54";
	setAttr -k off ".v";
createNode transform -n "locator55" -p "group1";
	setAttr ".t" -type "double3" -6.3171098721995742 0.94800340255166304 -4.4763023027668725 ;
	setAttr ".s" -type "double3" 0.19274143415381881 0.19274143415381881 0.19274143415381881 ;
createNode locator -n "locatorShape55" -p "locator55";
	setAttr -k off ".v";
createNode transform -n "locator56" -p "group1";
	setAttr ".t" -type "double3" -6.602673204908359 0.3292562728306585 -1.2948132362213078 ;
	setAttr ".s" -type "double3" 0.19274143415381881 0.19274143415381881 0.19274143415381881 ;
createNode locator -n "locatorShape56" -p "locator56";
	setAttr -k off ".v";
createNode transform -n "locator57" -p "group1";
	setAttr ".t" -type "double3" -4.0561537135537735 0.39779376737454514 3.3138109810511476 ;
	setAttr ".s" -type "double3" 0.19274143415381881 0.19274143415381881 0.19274143415381881 ;
createNode locator -n "locatorShape57" -p "locator57";
	setAttr -k off ".v";
createNode transform -n "locator58" -p "group1";
	setAttr ".t" -type "double3" -0.58830176877998408 0.0066442048010385869 4.4246501661979405 ;
	setAttr ".s" -type "double3" 0.19274143415381881 0.19274143415381881 0.19274143415381881 ;
createNode locator -n "locatorShape58" -p "locator58";
	setAttr -k off ".v";
createNode transform -n "locator59" -p "group1";
	setAttr ".t" -type "double3" 3.2032424124761167 0.19539894426455362 1.3363588202379244 ;
	setAttr ".s" -type "double3" 0.19274143415381881 0.19274143415381881 0.19274143415381881 ;
createNode locator -n "locatorShape59" -p "locator59";
	setAttr -k off ".v";
createNode transform -n "locator60" -p "group1";
	setAttr ".t" -type "double3" 3.5534323488624762 0.11395775939076813 -2.4544584737699733 ;
	setAttr ".s" -type "double3" 0.19274143415381881 0.19274143415381881 0.19274143415381881 ;
createNode locator -n "locatorShape60" -p "locator60";
	setAttr -k off ".v";
createNode transform -n "locator61" -p "group1";
	setAttr ".t" -type "double3" -0.062646906480964049 0.6348229021714431 -2.9497137742351844 ;
	setAttr ".s" -type "double3" 0.19274143415381881 0.19274143415381881 0.19274143415381881 ;
createNode locator -n "locatorShape61" -p "locator61";
	setAttr -k off ".v";
createNode transform -n "locator62" -p "group1";
	setAttr ".t" -type "double3" 0.99033432841354641 0.56402853313274548 -0.048924531409018535 ;
	setAttr ".s" -type "double3" 0.19274143415381881 0.19274143415381881 0.19274143415381881 ;
createNode locator -n "locatorShape62" -p "locator62";
	setAttr -k off ".v";
createNode transform -n "locator63" -p "group1";
	setAttr ".t" -type "double3" 0.15346856281819399 0.38862828111409442 -2.11475830630126 ;
	setAttr ".s" -type "double3" 0.19274143415381881 0.19274143415381881 0.19274143415381881 ;
createNode locator -n "locatorShape63" -p "locator63";
	setAttr -k off ".v";
createNode transform -n "locator64" -p "group1";
	setAttr ".t" -type "double3" 0.16178879023020443 0.72075652599474083 -0.24423317659079924 ;
	setAttr ".s" -type "double3" 0.19274143415381881 0.19274143415381881 0.19274143415381881 ;
createNode locator -n "locatorShape64" -p "locator64";
	setAttr -k off ".v";
createNode transform -n "locator65" -p "group1";
	setAttr ".t" -type "double3" -2.32087932584552 0.50810278727944791 -0.16763851811440222 ;
	setAttr ".s" -type "double3" 0.19274143415381881 0.19274143415381881 0.19274143415381881 ;
createNode locator -n "locatorShape65" -p "locator65";
	setAttr -k off ".v";
createNode transform -n "locator66" -p "group1";
	setAttr ".t" -type "double3" -0.83245573136173512 0.21116886535967083 -0.72096075605804533 ;
	setAttr ".s" -type "double3" 0.19274143415381881 0.19274143415381881 0.19274143415381881 ;
createNode locator -n "locatorShape66" -p "locator66";
	setAttr -k off ".v";
createNode transform -n "locator67" -p "group1";
	setAttr ".t" -type "double3" -2.6499199981240968 0.32922011718312666 1.8430099127923301 ;
	setAttr ".s" -type "double3" 0.19274143415381881 0.19274143415381881 0.19274143415381881 ;
createNode locator -n "locatorShape67" -p "locator67";
	setAttr -k off ".v";
createNode triangulator -n "triangulator1";
	addAttr -ci true -sn "docMeta_Author" -ln "docMeta_Author" -dt "string";
	addAttr -ci true -sn "docMeta_Email" -ln "docMeta_Email" -dt "string";
	addAttr -ci true -sn "docMeta_Keywords" -ln "docMeta_Keywords" -dt "string";
	addAttr -ci true -sn "docMeta_TestScene" -ln "docMeta_TestScene" -dt "string";
	addAttr -ci true -sn "docMeta_Description" -ln "docMeta_Description" -dt "string";
	addAttr -ci true -sn "docBlock_Synopsis" -ln "docBlock_Synopsis" -dt "string";
	addAttr -ci true -sn "docAttr_Limit" -ln "docAttr_Limit" -dt "string";
	addAttr -ci true -sn "docAttr_Projection" -ln "docAttr_Projection" -dt "string";
	addAttr -ci true -sn "docAttr_Projection0" -ln "docAttr_Projection0" -dt "string";
	addAttr -ci true -sn "docAttr_Projection2" -ln "docAttr_Projection2" -dt "string";
	addAttr -ci true -sn "docAttr_InTransforms" -ln "docAttr_InTransforms" -dt "string";
	addAttr -ci true -sn "docAttr_OutMesh" -ln "docAttr_OutMesh" -dt "string";
	addAttr -ci true -sn "docAttr_Projection1" -ln "docAttr_Projection1" -dt "string";
	setAttr ".lmt" 138;
	setAttr -s 67 ".itfs";
	setAttr ".docMeta_Author" -type "string" "Julian Mann";
	setAttr ".docMeta_Email" -type "string" "julian-m@moving-picture.com";
	setAttr ".docMeta_Keywords" -type "string" "";
	setAttr ".docMeta_TestScene" -type "string" "";
	setAttr ".docMeta_Description" -type "string" "Create Delaunay triangulation from locators";
	setAttr ".docBlock_Synopsis" -type "string" "A Delaunay triangulation is created by projecting towards a 3d point set from a specified 3d projection vector. ";
	setAttr ".docAttr_Limit" -type "string" "Specify the maximum number of triangles to make. Useful only for debugging and speed purposes. The default (-1) will make all triangles.";
	setAttr ".docAttr_Projection" -type "string" "The direction from which to project. When viewing the triangulation along this vector there will be no overlapping triangles.";
	setAttr ".docAttr_Projection0" -type "string" "X component of the projection vector.";
	setAttr ".docAttr_Projection2" -type "string" "Z component of the projection vector.";
	setAttr ".docAttr_InTransforms" -type "string" "The locators from which to build the triangulation.";
	setAttr ".docAttr_OutMesh" -type "string" "The output mesh";
	setAttr ".docAttr_Projection1" -type "string" "Y component of the projection vector.";
createNode plusMinusAverage -n "plusMinusAverage1";
	setAttr ".op" 2;
	setAttr -s 2 ".i3";
	setAttr -s 2 ".i3";
select -ne :time1;
	setAttr ".o" 1;
	setAttr ".unw" 1;
select -ne :renderPartition;
	setAttr -s 2 ".st";
select -ne :initialShadingGroup;
	setAttr ".ro" yes;
select -ne :initialParticleSE;
	setAttr ".ro" yes;
select -ne :defaultShaderList1;
	setAttr -s 2 ".s";
select -ne :postProcessList1;
	setAttr -s 2 ".p";
select -ne :defaultRenderingList1;
select -ne :renderGlobalsList1;
select -ne :hardwareRenderGlobals;
	setAttr ".ctrs" 256;
	setAttr ".btrs" 512;
select -ne :defaultHardwareRenderGlobals;
	setAttr ".fn" -type "string" "im";
	setAttr ".res" -type "string" "ntsc_4d 646 485 1.333";
connectAttr "locator1.wm" "triangulator1.itfs[0]";
connectAttr "locator2.wm" "triangulator1.itfs[1]";
connectAttr "locator3.wm" "triangulator1.itfs[2]";
connectAttr "locator4.wm" "triangulator1.itfs[3]";
connectAttr "locator5.wm" "triangulator1.itfs[4]";
connectAttr "locator6.wm" "triangulator1.itfs[5]";
connectAttr "locator7.wm" "triangulator1.itfs[6]";
connectAttr "locator8.wm" "triangulator1.itfs[7]";
connectAttr "locator9.wm" "triangulator1.itfs[8]";
connectAttr "locator10.wm" "triangulator1.itfs[9]";
connectAttr "locator11.wm" "triangulator1.itfs[10]";
connectAttr "locator12.wm" "triangulator1.itfs[11]";
connectAttr "locator13.wm" "triangulator1.itfs[12]";
connectAttr "locator14.wm" "triangulator1.itfs[13]";
connectAttr "locator15.wm" "triangulator1.itfs[14]";
connectAttr "locator16.wm" "triangulator1.itfs[15]";
connectAttr "locator17.wm" "triangulator1.itfs[16]";
connectAttr "locator18.wm" "triangulator1.itfs[17]";
connectAttr "locator19.wm" "triangulator1.itfs[18]";
connectAttr "locator20.wm" "triangulator1.itfs[19]";
connectAttr "locator21.wm" "triangulator1.itfs[20]";
connectAttr "locator22.wm" "triangulator1.itfs[21]";
connectAttr "locator23.wm" "triangulator1.itfs[22]";
connectAttr "locator24.wm" "triangulator1.itfs[23]";
connectAttr "locator25.wm" "triangulator1.itfs[24]";
connectAttr "locator26.wm" "triangulator1.itfs[25]";
connectAttr "locator27.wm" "triangulator1.itfs[26]";
connectAttr "locator28.wm" "triangulator1.itfs[27]";
connectAttr "locator29.wm" "triangulator1.itfs[28]";
connectAttr "locator30.wm" "triangulator1.itfs[29]";
connectAttr "locator31.wm" "triangulator1.itfs[30]";
connectAttr "locator32.wm" "triangulator1.itfs[31]";
connectAttr "locator33.wm" "triangulator1.itfs[32]";
connectAttr "locator34.wm" "triangulator1.itfs[33]";
connectAttr "locator35.wm" "triangulator1.itfs[34]";
connectAttr "locator36.wm" "triangulator1.itfs[35]";
connectAttr "locator37.wm" "triangulator1.itfs[36]";
connectAttr "locator38.wm" "triangulator1.itfs[37]";
connectAttr "locator39.wm" "triangulator1.itfs[38]";
connectAttr "locator40.wm" "triangulator1.itfs[39]";
connectAttr "locator41.wm" "triangulator1.itfs[40]";
connectAttr "locator42.wm" "triangulator1.itfs[41]";
connectAttr "locator43.wm" "triangulator1.itfs[42]";
connectAttr "locator44.wm" "triangulator1.itfs[43]";
connectAttr "locator45.wm" "triangulator1.itfs[44]";
connectAttr "locator46.wm" "triangulator1.itfs[45]";
connectAttr "locator47.wm" "triangulator1.itfs[46]";
connectAttr "locator48.wm" "triangulator1.itfs[47]";
connectAttr "locator49.wm" "triangulator1.itfs[48]";
connectAttr "locator50.wm" "triangulator1.itfs[49]";
connectAttr "locator51.wm" "triangulator1.itfs[50]";
connectAttr "locator52.wm" "triangulator1.itfs[51]";
connectAttr "locator53.wm" "triangulator1.itfs[52]";
connectAttr "locator54.wm" "triangulator1.itfs[53]";
connectAttr "locator55.wm" "triangulator1.itfs[54]";
connectAttr "locator56.wm" "triangulator1.itfs[55]";
connectAttr "locator57.wm" "triangulator1.itfs[56]";
connectAttr "locator58.wm" "triangulator1.itfs[57]";
connectAttr "locator59.wm" "triangulator1.itfs[58]";
connectAttr "locator60.wm" "triangulator1.itfs[59]";
connectAttr "locator61.wm" "triangulator1.itfs[60]";
connectAttr "locator62.wm" "triangulator1.itfs[61]";
connectAttr "locator63.wm" "triangulator1.itfs[62]";
connectAttr "locator64.wm" "triangulator1.itfs[63]";
connectAttr "locator65.wm" "triangulator1.itfs[64]";
connectAttr "locator66.wm" "triangulator1.itfs[65]";
connectAttr "locator67.wm" "triangulator1.itfs[66]";
connectAttr "plusMinusAverage1.o3" "triangulator1.pr";
connectAttr "locatorShape69.wp" "plusMinusAverage1.i3[0]";
connectAttr "locatorShape68.wp" "plusMinusAverage1.i3[1]";
// End of triangulator.ma
